19932032 636.5
20047096 644.5
20161856 664.0
20277232 648.25
20391664 656.25
20507432 656.25
20621496 644.5
20736464 656.25
20851288 656.25
20966256 652.25
21081120 769.5
21196176 1105.25
21310944 1652.25
21425936 2320.25
21540840 3011.5
21655768 3710.75
21770624 4464.75
21885576 4574.0
22000704 4386.5
22115488 4214.75
22230184 4031.25
22345176 3878.75
22460072 3703.0
22574928 3570.25
22689848 3398.25
22805000 3269.5
22919656 3128.75
23034576 2980.25
23149496 2847.5
23264456 2718.75
23379512 2589.75
23494176 2480.25
23609744 2335.75
23724000 2207.0
23838872 2050.75
23953872 1929.5
24068696 1796.75
24298512 1539.0
24413432 1425.75
24528328 1289.0
24643344 1187.5
24758176 1082.0
24873176 1054.5
24987968 1011.5
25103024 945.25
25217752 902.25
25332752 835.75
25447616 804.5
25562544 769.5
25677408 742.0
25792296 722.5
25907248 707.0
26022368 695.25
26137040 687.5
26251928 679.5
26366816 664.0
26481808 664.0
26596736 660.0
26712008 660.0
26826568 660.0
26942176 687.5
